{
    "delay": 500,
    "ext": "js,jsx,yml,json",
    "exec": "node",
    "env": {
        "NODE_ENV": "development"
    },
    "ignore": [
        "__mocks__/*",
        "src/*",
        "public/*"
    ],
    "watch": ["backend"]
}

